<?xml version="1.0" encoding="iso-8859-1"?>
<!-- Generator: Adobe Illustrator 19.0.0, SVG Export Plug-In . SVG Version: 6.00 Build 0)  -->
<svg version="1.1" id="Layer_1" xmlns="http://www.w3.org/2000/svg" xmlns:xlink="http://www.w3.org/1999/xlink" x="0px" y="0px"
	 viewBox="0 0 407.383 407.383" style="enable-background:new 0 0 407.383 407.383;" xml:space="preserve">
<g>
	<title>Grab Fist</title>
	<g id="Grab_Fist_1_">
		<path style="fill:#FEC33C;" d="M141.735,327.678h177.122c19.564,0,35.424,15.86,35.424,35.424v44.281l0,0H106.31l0,0v-44.281
			C106.31,343.538,122.17,327.678,141.735,327.678z"/>
		<path style="fill:#F5E6C6;" d="M129.602,302.792l-1.151,22.672h196.606v-33.21c-0.006-6.411,0.737-12.802,2.214-19.041
			l7.085-29.845c4.881-20.49,6.347-41.645,4.34-62.613l-9.476-87.941c-2.17-25.786-23.457-45.774-49.329-46.318h-4.428
			c-1.005,0.016-1.997,0.227-2.923,0.62c-7.53-11.045-20.02-17.671-33.388-17.712h-5.048c-3.724,0.004-7.395,0.883-10.716,2.568
			c-7.291-12.17-20.354-19.706-34.539-19.926h-4.428c-12.629,0.324-23.073,9.936-24.443,22.495
			c-5.043-3.259-10.911-5.01-16.915-5.048h-1.328c-22.728,0.374-41.104,18.633-41.624,41.358l-1.063,22.14l-2.923-0.797
			c-8.568-1.731-16.987,3.569-19.129,12.044l-17.712,63.233c-3.521,12.311-3.243,25.399,0.797,37.55l10.185,30.731
			C77.528,258.689,129.602,297.036,129.602,302.792z"/>
		<path style="fill:#C89406;" d="M159.447,371.958h-17.712c-4.891,0-8.856,3.965-8.856,8.856s3.965,8.856,8.856,8.856h17.712
			c4.891,0,8.856-3.965,8.856-8.856C168.303,375.923,164.338,371.958,159.447,371.958z"/>
		<path style="fill:#C89406;" d="M94.797,159.411c-4.723-0.006-8.62,3.696-8.856,8.413l-0.886,17.712
			c-0.006,4.723,3.696,8.62,8.413,8.856h0.443c4.891,0,8.856-3.965,8.856-8.856l0.886-17.712
			C103.417,163.107,99.521,159.406,94.797,159.411z"/>
		<path style="fill:#C89406;" d="M331.787,321.744v-36.31c-0.031-6.657,0.772-13.292,2.391-19.749l7.616-30.376
			c5.215-20.828,6.773-42.403,4.605-63.764l-9.83-89.004c-3.076-26.973-25.99-47.289-53.137-47.115h-4.782
			c-1.062,0.019-2.112,0.229-3.1,0.62c-8.232-11.384-21.377-18.187-35.424-18.332h-5.402c-3.952-0.004-7.855,0.873-11.424,2.568
			c-8.168-12.664-22.215-20.305-37.284-20.281h-4.694C167.986-0.13,156.62,9.645,154.753,22.85
			c-5.347-3.246-11.458-5.018-17.712-5.137h-1.771c-23.616-0.03-43.1,18.48-44.281,42.067l-1.151,22.495l-3.188-0.797
			c-8.976-1.8-17.844,3.537-20.458,12.31l-19.306,64.295c-3.775,12.518-3.496,25.909,0.797,38.258l10.893,31.262
			c8.026,23.195,23.303,43.192,43.572,57.033l11.336,7.793c4.822,3.302,7.704,8.769,7.705,14.613v17.712
			c-15.587,8.148-23.734,23.734-23.734,47.203v26.568c0,4.891,3.965,8.856,8.856,8.856c4.891,0,8.856-3.965,8.856-8.856v-26.568
			c0-25.506,9.919-35.424,35.424-35.424h159.41c26.568,0,35.424,8.856,35.424,35.424H194.872c-4.891,0-8.856,3.965-8.856,8.856
			s3.965,8.856,8.856,8.856h150.554v8.856c0,4.891,3.965,8.856,8.856,8.856s8.856-3.965,8.856-8.856v-26.568
			C363.138,344.504,352.776,327.678,331.787,321.744z M150.591,318.822c-3.881,0.007-7.756,0.273-11.602,0.797v-12.664
			c0.071-11.574-5.518-22.453-14.967-29.137l-11.336-7.793c-17.365-11.742-30.449-28.804-37.284-48.62l-10.893-31.262
			c-3.072-8.8-3.289-18.346-0.62-27.277l20.103-64.207c1.685,0.354,3.342,0.827,4.959,1.417L86.826,141.7
			c-0.006,4.723,3.696,8.62,8.413,8.856h0.443c4.891,0,8.856-3.965,8.856-8.856l4.074-81.476
			c0.708-14.152,12.399-25.258,26.568-25.24h1.771c9.782,0,17.712,7.93,17.712,17.712v26.568c0,4.891,3.965,8.856,8.856,8.856
			s8.856-3.965,8.856-8.856V26.57c0-4.891,3.965-8.856,8.856-8.856h4.782c13.335-0.131,24.702,9.644,26.568,22.849l4.517,31.616
			c0.622,4.402,4.411,7.66,8.856,7.616h1.24c4.842-0.685,8.212-5.165,7.528-10.007l-4.517-31.616c0,0,0-0.62,0-0.974
			c1.396-1.015,3.058-1.6,4.782-1.683h5.402c13.133-0.176,24.424,9.271,26.568,22.229l3.897,23.557
			c0.741,4.296,4.497,7.414,8.856,7.351h1.506c4.814-0.813,8.063-5.368,7.262-10.185l-5.048-23.734c0-0.531,0-1.063,0-1.594l0,0
			c18.108-0.115,33.388,13.446,35.424,31.439l10.185,89.358c1.949,19.285,0.541,38.761-4.162,57.565l-7.616,30.376
			c-1.938,7.733-2.92,15.674-2.923,23.646v33.299c-1.417,0-2.568,0-4.074,0H150.591z"/>
	</g>
</g>
<g>
</g>
<g>
</g>
<g>
</g>
<g>
</g>
<g>
</g>
<g>
</g>
<g>
</g>
<g>
</g>
<g>
</g>
<g>
</g>
<g>
</g>
<g>
</g>
<g>
</g>
<g>
</g>
<g>
</g>
</svg>
